137 = {

    # Misc
    culture = ciderfoot_halfling
    religion = small_temple

    # History

}

139 = {

    # Misc
    culture = ciderfoot_halfling
    religion = small_temple

    # History

}

103 = {

    # Misc
    culture = ciderfoot_halfling
    religion = small_temple

    # History

}

147 = {

    # Misc
    culture = ciderfoot_halfling
    religion = small_temple

    # History

}

163 = {

    # Misc
    culture = ciderfoot_halfling
    religion = small_temple

    # History

}

165 = {

    # Misc
    culture = ciderfoot_halfling
    religion = small_temple
	holding = city_holding

    # History

}
