25 = {

    # Misc
    culture = vernid
    religion = court_of_adean

    # History
}

45 = {

    # Misc
    culture = vernid
    religion = court_of_adean

    # History
}

50 = {

    # Misc
    culture = vernid
    religion = court_of_adean

    # History
}

51 = {

    # Misc
    culture = vernid
    religion = court_of_adean

    # History
}

283 = {

    # Misc
    culture = vernid
    religion = court_of_adean

    # History
}

284 = {

    # Misc
    culture = vernman
    religion = court_of_adean

    # History
}

285 = {

    # Misc
    culture = vernid
    religion = court_of_adean

    # History
}

286 = {

    # Misc
    culture = vernid
    religion = court_of_adean

    # History
}

287 = {

    # Misc
    culture = vernid
    religion = court_of_adean

    # History
}

288 = {

    # Misc
    culture = vernid
    religion = court_of_adean

    # History
}

289 = {

    # Misc
    culture = vernid
    religion = court_of_adean

    # History
}

290 = {

    # Misc
    culture = vernman
    religion = court_of_adean

    # History
}

291 = {

    # Misc
    culture = vernman
    religion = court_of_adean

    # History
}

292 = {

    # Misc
    culture = vernid
    religion = court_of_adean

    # History
}

293 = {

    # Misc
    culture = vernid
    religion = court_of_adean

    # History
}

295 = {

    # Misc
    culture = vernman
    religion = court_of_adean

    # History
}

331 = {

    # Misc
    culture = vernid
    religion = court_of_adean

    # History
}

376 = {

    # Misc
    culture = vernid
    religion = court_of_adean

    # History

}

569 = {

    # Misc
    culture = vernid
    religion = court_of_adean

    # History
}

838 = {

    # Misc
    culture = vernid
    religion = court_of_adean

    # History
}

906 = {

    # Misc
    culture = vernid
    religion = court_of_adean

    # History
}
