191 = {

    # Misc
    culture = moorman
    religion = cult_of_the_dame

    # History
}

192 = {

    # Misc
    culture = moorman
    religion = cult_of_the_dame

    # History
}

193 = {

    # Misc
    culture = moorman
    religion = cult_of_the_dame

    # History
}

194 = {

    # Misc
    culture = moorman
    religion = cult_of_the_dame

    # History
}

195 = {

    # Misc
    culture = moorman
    religion = cult_of_the_dame

    # History
}

196 = {

    # Misc
    culture = moorman
    religion = cult_of_the_dame

    # History
}

201 = {

    # Misc
    culture = moorman
    religion = cult_of_the_dame

    # History
}

202 = {

    # Misc
    culture = moorman
    religion = cult_of_the_dame

    # History
}

203 = {

    # Misc
    culture = moorman
    religion = cult_of_the_dame

    # History
}

204 = {

    # Misc
    culture = moorman
    religion = cult_of_the_dame

    # History
}

345 = {

    # Misc
    culture = moorman
    religion = cult_of_the_dame

    # History
}