122 = {

    # Misc
    culture = reverian
    religion = castanorian_pantheon
	holding = city_holding

    # History
}

138 = {

    # Misc
    culture = reverian
    religion = castanorian_pantheon

    # History
}

140 = {

    # Misc
    culture = reverian
    religion = castanorian_pantheon

    # History
}

144 = {

    # Misc
    culture = reverian
    religion = castanorian_pantheon

    # History
}

145 = {

    # Misc
    culture = reverian
    religion = castanorian_pantheon

    # History
}

148 = {

    # Misc
    culture = gawedi
    religion = cult_of_the_dame

    # History
}

167 = {

    # Misc
    culture = gawedi
    religion = cult_of_the_dame

    # History
}