123 = {

    # Misc
    culture = iochander
    religion = court_of_adean

    # History
}

124 = {

    # Misc
    culture = iochander
    religion = court_of_adean

    # History
}

125 = {

    # Misc
    culture = iochander
    religion = court_of_adean

    # History
}

126 = {

    # Misc
    culture = creek_gnomish
    religion = court_of_adean
	holding = city_holding

    # History
}

128 = {

    # Misc
    culture = iochander
    religion = court_of_adean

    # History
}

129 = {

    # Misc
    culture = iochander
    religion = court_of_adean

    # History
}

141 = {

    # Misc
    culture = ciderfoot_halfling
    religion = small_temple
	holding = city_holding

    # History
}

142 = {

    # Misc
    culture = iochander
    religion = court_of_adean

    # History

}

143 = {

    # Misc
    culture = iochander
    religion = court_of_adean

    # History
}