5431 = {

    # Misc
    culture = maqeti
    religion = cult_of_the_dame

    # History
}

5434 = {

    # Misc
    culture = maqeti
    religion = cult_of_the_dame

    # History
}

5435 = {

    # Misc
    culture = maqeti
    religion = cult_of_the_dame

    # History
}

5667 = {

    # Misc
    culture = maqeti
    religion = cult_of_the_dame

    # History
}

5668 = {

    # Misc
    culture = maqeti
    religion = cult_of_the_dame

    # History
}

5436 = {

    # Misc
    culture = maqeti
    religion = cult_of_the_dame

    # History
}

5437 = {

    # Misc
    culture = maqeti
    religion = cult_of_the_dame

    # History
}

566 = {

    # Misc
    culture = maqeti
    religion = cult_of_the_dame

    # History
}

5432 = {

    # Misc
    culture = maqeti
    religion = cult_of_the_dame

    # History
}

5433 = {

    # Misc
    culture = maqeti
    religion = cult_of_the_dame

    # History
}