551 = {

    # Misc
    culture = bahari
    religion = cult_of_the_dame

    # History
}

552 = {

    # Misc
    culture = bahari
    religion = cult_of_the_dame

    # History
}

553 = {

    # Misc
    culture = bahari
    religion = cult_of_the_dame

    # History
}

554 = {

    # Misc
    culture = bahari
    religion = cult_of_the_dame

    # History
}

555 = {

    # Misc
    culture = bahari
    religion = cult_of_the_dame

    # History
}

556 = {

    # Misc
    culture = bahari
    religion = cult_of_the_dame

    # History
}

557 = {

    # Misc
    culture = bahari
    religion = cult_of_the_dame

    # History
}